1={9851 }
2={9904 }
3={6666 }
4={704 }
5={281 }
6={9574 }
7={9498 }
8={6583 }
9={6418 }
10={9400 }
11={9374 }
12={9340 }
13={9079 }
14={542 }
15={3534 }
16={11506 }
17={3666 }
18={11732 }
19={6777 }
20={3447 }
21={958 }
22={11709 }
23={9631 }
24={6518 }
25={6618 }
26={769 }
27={9609 }
28={6529 }
29={11549 }
30={3509 }
31={6917 }
32={3589 }
33={11869 }
34={3516 }
35={11456 }
36={6336 }
37={3305 }
38={3148 }
39={6675 }
40={1297 }
41={858 }
42={11470 }
43={701 }
44={13244 }
45={3623 }
46={3663 }
47={863 }
48={9771 }
49={6808 }
50={11486 }
51={9522 }
52={9652 }
53={9515 }
54={9557 }
55={6549 }
56={241 }
57={3355 }
58={3231 }
59={3271 }
60={482 }
61={321 }
62={6309 }
63={11288 }
64={375 }
65={573 }
66={6595 }
67={479 }
68={3473 }
69={3418 }
70={541 }
71={6751 }
72={9567 }
73={11691 }
74={445 }
75={6576 }
76={6714 }
77={11597 }
78={11705 }
79={9716 }
80={9548 }
81={3630 }
82={3649 }
83={6682 }
84={3676 }
85={362 }
86={11232 }
87={9439 }
88={11413 }
89={6735 }
90={3272 }
91={491 }
92={6484 }
93={6557 }
94={9501 }
95={400 }
96={358 }
97={3298 }
98={3230 }
99={6364 }
100={8103 }
101={12022 }
102={596 }
103={3924 }
104={6619 }
105={9821 }
106={974 }
107={797 }
108={3627 }
109={3596 }
110={11028 }
111={32 }
112={799 }
113={285 }
114={9863 }
115={12047 }
116={12003 }
117={3966 }
118={4135 }
119={385 }
120={11161 }
121={159 }
122={311 }
123={3463 }
124={6258 }
125={271 }
126={11333 }
127={3501 }
128={11345 }
129={9322 }
130={9379 }
131={11270 }
132={6318 }
133={6385 }
134={337 }
135={7394 }
136={11306 }
137={6724 }
138={9362 }
139={299 }
140={9218 }
141={11188 }
142={3090 }
143={21 }
144={11077 }
145={9228 }
146={6052 }
147={197 }
148={11204 }
149={9038 }
150={11076 }
151={661 }
152={3675 }
153={673 }
154={679 }
155={9661 }
156={6690 }
157={6926 }
158={6635 }
159={6661 }
160={9582 }
161={782 }
162={11833 }
163={3943 }
164={7003 }
165={3898 }
166={6878 }
167={6959 }
168={11807 }
169={12070 }
170={6866 }
171={3761 }
172={3933 }
173={7153 }
174={6867 }
175={6879 }
176={3820 }
177={9793 }
178={13071 }
179={3790 }
180={6941 }
181={6818 }
182={9940 }
183={7193 }
184={9930 }
185={841 }
186={7211 }
187={8435 }
188={3288 }
189={6314 }
190={3194 }
191={9221 }
192={741 }
193={315 }
194={3203 }
195={3151 }
196={568 }
197={11683 }
198={3430 }
199={6509 }
200={3399 }
201={9493 }
202={3543 }
203={11409 }
204={222 }
205={6252 }
206={11322 }
207={415 }
208={11887 }
209={592 }
210={6242 }
211={9862 }
212={9610 }
213={6175 }
214={11042 }
215={6194 }
216={157 }
217={6527 }
218={11450 }
219={9348 }
220={9260 }
221={6530 }
222={6359 }
223={3236 }
224={687 }
225={3520 }
226={11422 }
227={6776 }
228={9461 }
229={9715 }
230={12320 }
231={654 }
232={12441 }
233={685 }
234={6781 }
235={11694 }
236={11474 }
237={9720 }
238={11708 }
239={6450 }
240={11500 }
241={6201 }
242={11272 }
243={92 }
244={9150 }
245={3656 }
246={11326 }
247={150 }
248={6101 }
249={404 }
250={6294 }
251={6275 }
252={11375 }
253={9159 }
254={397 }
255={11364 }
256={6307 }
257={11436 }
258={9542 }
259={9519 }
260={3566 }
261={9825 }
262={3147 }
263={11072 }
264={9082 }
265={6997 }
266={10385 }
267={12248 }
268={4985 }
269={10833 }
270={1280 }
271={2009 }
272={12710 }
273={5004 }
274={8039 }
275={1688 }
276={3661 }
277={2011 }
278={10375 }
279={12984 }
280={12939 }
281={4967 }
282={1182 }
283={531 }
284={1565 }
285={4658 }
286={4341 }
287={8042 }
288={12090 }
289={4496 }
290={9945 }
291={3795 }
292={10748 }
293={10752 }
294={2059 }
295={12945 }
296={12747 }
297={8244 }
298={7959 }
299={12960 }
300={4457 }
301={12901 }
302={13195 }
303={12969 }
304={4611 }
305={10888 }
306={2079 }
307={8080 }
308={7123 }
309={10906 }
310={12885 }
311={2077 }
312={2031 }
313={10886 }
314={12823 }
315={7451 }
316={12878 }
317={2075 }
318={1594 }
319={10484 }
320={10149 }
321={1273 }
322={8068 }
323={10825 }
324={8010 }
325={12841 }
326={10062 }
327={10265 }
328={7591 }
329={12625 }
330={12612 }
331={7788 }
332={1785 }
333={7443 }
334={10266 }
335={4434 }
336={12271 }
337={13003 }
338={3369 }
339={6992 }
340={785 }
341={6895 }
342={9941 }
343={11831 }
344={9893 }
345={4124 }
346={11860 }
347={11883 }
348={11826 }
349={6965 }
350={9823 }
351={9113 }
352={864 }
353={11880 }
354={3979 }
355={9915 }
356={11897 }
357={715 }
358={3733 }
359={11900 }
360={11800 }
361={6929 }
362={3823 }
363={10096 }
364={11927 }
365={10437 }
366={1843 }
367={11509 }
368={10824 }
369={10727 }
370={10753 }
371={7552 }
372={4567 }
373={10370 }
374={11743 }
375={9773 }
376={10914 }
377={7920 }
378={10387 }
379={4521 }
380={10651 }
381={7814 }
382={1738 }
383={4586 }
384={1683 }
385={12553 }
386={4398 }
387={12535 }
388={4857 }
389={10709 }
390={4880 }
391={11667 }
392={10666 }
393={9746 }
394={1560 }
395={7831 }
396={9653 }
397={1295 }
398={4314 }
399={12244 }
400={6288 }
401={11460 }
402={10131 }
403={6787 }
404={12194 }
405={10488 }
406={6615 }
407={6541 }
408={11629 }
409={1267 }
410={10782 }
411={4928 }
412={12863 }
413={1922 }
414={7990 }
415={4949 }
416={10351 }
417={10922 }
418={8009 }
419={1896 }
420={10523 }
421={5050 }
422={12258 }
423={4327 }
424={1228 }
425={8100 }
426={7090 }
427={4280 }
428={4132 }
429={1405 }
430={10035 }
431={7220 }
432={1581 }
433={4149 }
434={12730 }
435={10471 }
436={4883 }
437={2105 }
438={9951 }
439={10729 }
440={12005 }
441={7316 }
442={1978 }
443={10735 }
444={5043 }
445={8044 }
446={7188 }
447={10073 }
448={7066 }
449={10046 }
450={4120 }
451={9992 }
452={11910 }
453={11922 }
454={10104 }
455={11976 }
456={10844 }
457={12889 }
458={4129 }
459={9960 }
460={12034 }
461={4139 }
462={1989 }
463={10679 }
464={7304 }
465={12289 }
466={3911 }
467={5239 }
468={7433 }
469={4695 }
470={7766 }
471={7891 }
472={10703 }
473={1872 }
474={12715 }
475={1900 }
476={10773 }
477={8079 }
478={5052 }
479={12721 }
480={10746 }
481={8057 }
482={12745 }
483={4977 }
484={8119 }
485={10730 }
486={12770 }
487={12902 }
488={1981 }
489={1944 }
490={8149 }
491={8213 }
492={12953 }
493={12845 }
494={2226 }
495={2198 }
496={10931 }
497={2150 }
498={5168 }
499={4617 }
500={10432 }
501={1583 }
502={7594 }
503={2109 }
504={2111 }
505={8140 }
506={8231 }
507={5201 }
508={12978 }
509={10944 }
510={8208 }
511={5152 }
512={2199 }
513={5053 }
514={1095 }
515={4978 }
516={2972 }
517={7811 }
518={5187 }
519={5138 }
520={4487 }
521={7506 }
522={10937 }
523={1310 }
524={1091 }
525={7175 }
526={11932 }
527={978 }
528={11925 }
529={10052 }
530={4094 }
531={11960 }
532={10100 }
533={7169 }
534={12007 }
535={7217 }
536={10512 }
537={1820 }
538={7931 }
539={8207 }
540={4735 }
541={4879 }
542={1580 }
543={5185 }
544={2123 }
545={5221 }
546={8201 }
547={8133 }
548={8223 }
549={10908 }
550={5047 }
551={10745 }
552={2064 }
553={11919 }
554={4111 }
555={1399 }
556={8065 }
557={8058 }
558={1891 }
559={5065 }
560={10590 }
561={1739 }
562={12518 }
563={10574 }
564={12507 }
565={1666 }
566={10661 }
567={10699 }
568={4724 }
569={4789 }
570={7722 }
571={4700 }
572={4242 }
573={10142 }
574={4855 }
575={1792 }
576={4743 }
577={7685 }
578={10686 }
579={96 }
580={10604 }
581={12659 }
582={4265 }
583={12170 }
584={4563 }
585={1554 }
586={10148 }
587={475 }
588={7317 }
589={7856 }
590={1680 }
591={11963 }
592={7039 }
593={12095 }
594={12023 }
595={10042 }
596={11991 }
597={4071 }
598={7200 }
599={7210 }
600={10057 }
601={5102 }
602={12017 }
603={7577 }
604={4964 }
605={10822 }
606={9937 }
607={7085 }
608={11761 }
609={11822 }
610={881 }
611={1137 }
612={1551 }
613={11982 }
614={4137 }
615={1575 }
616={10899 }
617={4709 }
618={1844 }
619={7949 }
620={7637 }
621={12609 }
622={7208 }
623={12253 }
624={1372 }
625={1340 }
626={7419 }
627={12217 }
628={10302 }
629={4180 }
630={13051 }
631={13052 }
632={13047 }
633={13039 }
634={10291 }
635={12132 }
636={4286 }
637={1863 }
638={12140 }
639={13021 }
640={10920 }
641={12148 }
642={13050 }
643={13055 }
644={4006 }
645={13025 }
646={13024 }
647={4357 }
648={13026 }
649={5023 }
650={13067 }
651={291 }
652={1254 }
653={7228 }
654={10531 }
655={1755 }
656={8085 }
657={4779 }
658={10904 }
659={5074 }
660={5084 }
661={7154 }
662={8069 }
663={7139 }
664={11679 }
665={1105 }
666={3095 }
667={12219 }
668={1419 }
669={10396 }
670={12433 }
671={7280 }
672={8360 }
673={4537 }
674={7859 }
675={1631 }
676={1600 }
677={7671 }
678={12768 }
679={10835 }
680={2013 }
681={12589 }
682={13094 }
683={2947 }
684={13033 }
685={7617 }
686={1440 }
687={8107 }
688={2209 }
689={12304 }
690={7245 }
691={13012 }
692={11350 }
693={1513 }
694={9377 }
695={153 }
696={13010 }
697={3118 }
698={1751 }
699={10875 }
700={2094 }
701={4989 }
702={13014 }
703={13013 }
704={13016 }
705={13015 }
706={13017 }
707={13018 }
708={13072 }
709={2188 }
710={13019 }
711={13005 }
712={13002 }
713={2165 }
714={7613 }
715={12485 }
716={6837 }
717={4551 }
718={6537 }
719={7576 }
720={10995 }
721={12206 }
722={9140 }
723={8204 }
724={10156 }
725={13038 }
726={7290 }
727={13053 }
728={11981 }
729={4189 }
730={373 }
731={936 }
732={1483 }
733={12251 }
734={7390 }
735={3773 }
736={628 }
737={7251 }
738={4579 }
739={4360 }
740={1420 }
741={7645 }
742={12805 }
743={10000 }
744={5092 }
745={1150 }
746={3427 }
747={8126 }
748={4325 }
749={4105 }
750={7279 }
751={10841 }
752={8104 }
753={1257 }
754={10490 }
755={10865 }
756={5007 }
757={2098 }
758={10802 }
759={5736 }
760={4704 }
761={10612 }
762={575 }
763={5291 }
764={778 }
765={665 }
766={13269 }
767={3641 }
768={9346 }
769={6631 }
770={6672 }
771={2151 }
772={3614 }
773={9947 }
774={9650 }
775={9699 }
776={3735 }
777={4445 }
778={3712 }
779={12221 }
780={6958 }
781={11830 }
782={13208 }
783={9786 }
784={3957 }
785={12858 }
786={12843 }
787={12762 }
788={2056 }
789={6039 }
790={8193 }
791={9962 }
792={2220 }
793={1897 }
794={12838 }
795={8071 }
796={12986 }
797={13219 }
798={334 }
799={4556 }
800={7900 }
801={13210 }
802={3488 }
803={12029 }
804={332 }
805={9274 }
806={11531 }
807={11640 }
808={9486 }
809={9482 }
810={3254 }
811={11595 }
812={6946 }
813={11735 }
814={11627 }
815={11564 }
816={9981 }
817={1003 }
818={9874 }
819={11580 }
820={4088 }
821={13239 }
822={1015 }
823={13212 }
824={10472 }
825={12432 }
826={12348 }
827={12331 }
828={8081 }
829={1838 }
830={2074 }
831={4973 }
832={11926 }
833={1458 }
834={9635 }
835={6727 }
836={3407 }
837={6761 }
838={9668 }
839={746 }
840={10900 }
841={13058 }
842={13074 }
843={4902 }
844={1956 }
845={10725 }
846={3959 }
847={11516 }
848={1634 }
849={3401 }
850={7939 }
851={8051 }
852={10868 }
853={4191 }
854={12082 }
855={1994 }
856={11891 }
857={6973 }
858={9608 }
859={6196 }
860={12596 }
861={5030 }
862={4081 }
863={10127 }
864={7148 }
865={13223 }
866={7987 }
867={12099 }
868={13224 }
869={12824 }
870={13232 }
871={11012 }
872={13222 }
873={13216 }
874={4205 }
875={3922 }
876={13225 }
877={13247 }
878={13226 }
879={1955 }
880={10760 }
881={4932 }
882={10791 }
883={10383 }
884={8101 }
885={4976 }
886={11774 }
887={6913 }
888={11767 }
889={6900 }
890={12819 }
891={4440 }
892={8001 }
893={13250 }
894={13251 }
895={13252 }
896={11868 }
897={13245 }
898={13253 }
899={3893 }
900={907 }
901={13248 }
902={11786 }
903={6930 }
904={6857 }
905={12812 }
906={8094 }
907={4909 }
908={2020 }
909={1964 }
910={12941 }
911={3569 }
912={9643 }
913={11816 }
914={6626 }
915={13264 }
916={13259 }
917={13261 }
918={3696 }
919={10417 }
920={10485 }
921={4924 }
922={12740 }
923={12879 }
924={2048 }
925={5042 }
926={10054 }
927={10132 }
928={429 }
