1={3838 }
2={6862 }
3={6683 }
4={6739 }
5={281 }
6={6446 }
7={9498 }
8={6583 }
9={11542 }
10={402 }
11={327 }
12={9340 }
13={3152 }
14={6572 }
15={11563 }
16={9523 }
17={6698 }
18={9490 }
19={9737 }
20={3546 }
21={3928 }
22={752 }
23={11596 }
24={512 }
25={620 }
26={3754 }
27={667 }
28={11502 }
29={9561 }
30={11463 }
31={929 }
32={780 }
33={669 }
34={9536 }
35={11456 }
36={9363 }
37={6361 }
38={114 }
39={9630 }
40={7680 }
41={11870 }
42={563 }
43={716 }
44={9875 }
45={619 }
46={674 }
47={976 }
48={9771 }
49={6908 }
50={6934 }
51={587 }
52={708 }
53={3571 }
54={9557 }
55={3524 }
56={309 }
57={405 }
58={11366 }
59={6218 }
60={425 }
61={293 }
62={9334 }
63={11260 }
64={6521 }
65={3535 }
66={6534 }
67={9511 }
68={3572 }
69={3418 }
70={3537 }
71={6751 }
72={9567 }
73={9563 }
74={3414 }
75={3583 }
76={6714 }
77={11597 }
78={565 }
79={6729 }
80={9548 }
81={6652 }
82={9606 }
83={6682 }
84={690 }
85={362 }
86={3381 }
87={9439 }
88={466 }
89={11659 }
90={6281 }
91={438 }
92={9452 }
93={572 }
94={9317 }
95={318 }
96={3556 }
97={3388 }
98={6347 }
99={3277 }
100={12816 }
101={10245 }
102={3631 }
103={3924 }
104={3985 }
105={9821 }
106={11832 }
107={3609 }
108={3627 }
109={11581 }
110={10 }
111={32 }
112={3798 }
113={7377 }
114={11824 }
115={1009 }
116={12003 }
117={963 }
118={4135 }
119={385 }
120={6205 }
121={6300 }
122={407 }
123={6526 }
124={408 }
125={271 }
126={9239 }
127={6489 }
128={11345 }
129={9322 }
130={6268 }
131={11299 }
132={3205 }
133={6320 }
134={9369 }
135={9405 }
136={9161 }
137={6724 }
138={6345 }
139={3229 }
140={3286 }
141={11188 }
142={9047 }
143={107 }
144={6079 }
145={9228 }
146={3187 }
147={11085 }
148={11130 }
149={3122 }
150={11076 }
151={636 }
152={3675 }
153={9633 }
154={3730 }
155={11630 }
156={6690 }
157={11790 }
158={611 }
159={6661 }
160={9582 }
161={6606 }
162={11833 }
163={3943 }
164={7003 }
165={6927 }
166={798 }
167={6906 }
168={11884 }
169={7183 }
170={6954 }
171={9686 }
172={3737 }
173={1090 }
174={920 }
175={9778 }
176={6936 }
177={9793 }
178={13071 }
179={6933 }
180={877 }
181={889 }
182={4170 }
183={7193 }
184={9930 }
185={9916 }
186={11965 }
187={8435 }
188={3288 }
189={6314 }
190={3194 }
191={9221 }
192={3575 }
193={11325 }
194={6232 }
195={149 }
196={767 }
197={574 }
198={9576 }
199={3457 }
200={6596 }
201={3570 }
202={3494 }
203={9491 }
204={9275 }
205={11254 }
206={11216 }
207={415 }
208={630 }
209={592 }
210={9254 }
211={9902 }
212={9610 }
213={9119 }
214={11089 }
215={3071 }
216={2998 }
217={6527 }
218={11434 }
219={350 }
220={580 }
221={3409 }
222={3393 }
223={6262 }
224={687 }
225={11462 }
226={9479 }
227={502 }
228={523 }
229={11674 }
230={12320 }
231={9702 }
232={12441 }
233={9647 }
234={9694 }
235={748 }
236={3435 }
237={481 }
238={12450 }
239={483 }
240={6432 }
241={185 }
242={3247 }
243={9078 }
244={9150 }
245={3656 }
246={11224 }
247={9144 }
248={2 }
249={372 }
250={3246 }
251={6275 }
252={3245 }
253={6358 }
254={9376 }
255={11309 }
256={9402 }
257={396 }
258={9542 }
259={9519 }
260={437 }
261={11890 }
262={11047 }
263={9331 }
264={11048 }
265={6997 }
266={7602 }
267={7448 }
268={4985 }
269={10833 }
270={1280 }
271={2040 }
272={12710 }
273={5004 }
274={8096 }
275={5231 }
276={9583 }
277={1965 }
278={12394 }
279={12954 }
280={8175 }
281={4967 }
282={4184 }
283={531 }
284={12604 }
285={12560 }
286={7238 }
287={12864 }
288={4275 }
289={7544 }
290={7215 }
291={7994 }
292={7995 }
293={10840 }
294={2018 }
295={12907 }
296={12747 }
297={8244 }
298={7959 }
299={12960 }
300={12468 }
301={2152 }
302={8157 }
303={12969 }
304={1633 }
305={10888 }
306={10747 }
307={5056 }
308={7123 }
309={1928 }
310={12885 }
311={2077 }
312={12865 }
313={10842 }
314={12823 }
315={7451 }
316={13092 }
317={10728 }
318={1594 }
319={7660 }
320={10149 }
321={1273 }
322={2010 }
323={12892 }
324={12860 }
325={10346 }
326={10062 }
327={12236 }
328={9848 }
329={12625 }
330={4856 }
331={7788 }
332={4787 }
333={10285 }
334={7355 }
335={10279 }
336={4384 }
337={13003 }
338={3369 }
339={11898 }
340={9887 }
341={9833 }
342={1119 }
343={784 }
344={11810 }
345={4008 }
346={11792 }
347={904 }
348={6977 }
349={9761 }
350={4512 }
351={6158 }
352={864 }
353={10399 }
354={9932 }
355={3965 }
356={9871 }
357={6732 }
358={9721 }
359={6882 }
360={6705 }
361={13209 }
362={6846 }
363={4168 }
364={10047 }
365={10492 }
366={9834 }
367={4756 }
368={10281 }
369={6974 }
370={10753 }
371={4507 }
372={7485 }
373={12346 }
374={7945 }
375={1954 }
376={10642 }
377={6897 }
378={10159 }
379={4607 }
380={7764 }
381={10711 }
382={1658 }
383={10340 }
384={3613 }
385={7398 }
386={1690 }
387={12607 }
388={1767 }
389={1870 }
390={4880 }
391={12597 }
392={7539 }
393={11669 }
394={4166 }
395={9450 }
396={4531 }
397={11179 }
398={4802 }
399={4400 }
400={9114 }
401={6473 }
402={1247 }
403={7833 }
404={1312 }
405={10488 }
406={11591 }
407={11510 }
408={6961 }
409={6774 }
410={10782 }
411={1963 }
412={12780 }
413={7953 }
414={7990 }
415={1995 }
416={7573 }
417={2065 }
418={12748 }
419={12793 }
420={10454 }
421={12773 }
422={10287 }
423={1409 }
424={12779 }
425={7244 }
426={10116 }
427={5063 }
428={7165 }
429={7232 }
430={4162 }
431={7593 }
432={1525 }
433={7998 }
434={10810 }
435={4459 }
436={10401 }
437={10816 }
438={8114 }
439={2032 }
440={10843 }
441={1910 }
442={4998 }
443={10735 }
444={5043 }
445={10813 }
446={4143 }
447={4076 }
448={9980 }
449={10117 }
450={11954 }
451={7082 }
452={12033 }
453={11922 }
454={10104 }
455={4591 }
456={7144 }
457={7156 }
458={11969 }
459={7033 }
460={10059 }
461={11987 }
462={1152 }
463={13069 }
464={7304 }
465={7379 }
466={12147 }
467={5239 }
468={10700 }
469={736 }
470={7787 }
471={7869 }
472={7696 }
473={1411 }
474={12715 }
475={12867 }
476={2021 }
477={10732 }
478={12873 }
479={13088 }
480={2104 }
481={8003 }
482={2037 }
483={10765 }
484={1904 }
485={4887 }
486={5026 }
487={5188 }
488={1981 }
489={1997 }
490={10942 }
491={12869 }
492={5202 }
493={12790 }
494={10940 }
495={8172 }
496={12903 }
497={10874 }
498={10345 }
499={10926 }
500={10432 }
501={12438 }
502={10447 }
503={1529 }
504={12951 }
505={8140 }
506={12994 }
507={5118 }
508={12928 }
509={10965 }
510={8238 }
511={7550 }
512={8192 }
513={8088 }
514={10749 }
515={4897 }
516={13064 }
517={7811 }
518={2183 }
519={5211 }
520={11013 }
521={11006 }
522={12912 }
523={11004 }
524={7214 }
525={10085 }
526={10124 }
527={9918 }
528={1020 }
529={10055 }
530={4094 }
531={1136 }
532={7157 }
533={1024 }
534={12007 }
535={7102 }
536={7595 }
537={12446 }
538={8016 }
539={2192 }
540={12391 }
541={10957 }
542={1580 }
543={8188 }
544={2202 }
545={5221 }
546={8201 }
547={10761 }
548={7133 }
549={8052 }
550={12723 }
551={12725 }
552={2064 }
553={1108 }
554={4486 }
555={1399 }
556={5013 }
557={5077 }
558={8021 }
559={8164 }
560={12559 }
561={7754 }
562={11607 }
563={12556 }
564={4837 }
565={12575 }
566={1727 }
567={7802 }
568={1777 }
569={1685 }
570={7687 }
571={1835 }
572={1327 }
573={237 }
574={7844 }
575={7726 }
576={4687 }
577={12639 }
578={7849 }
579={4733 }
580={4774 }
581={12502 }
582={4311 }
583={10168 }
584={7635 }
585={7541 }
586={7706 }
587={10262 }
588={12635 }
589={10146 }
590={4333 }
591={1070 }
592={7152 }
593={1162 }
594={7137 }
595={1166 }
596={10101 }
597={7089 }
598={7200 }
599={10404 }
600={4038 }
601={4407 }
602={4125 }
603={4192 }
604={8037 }
605={7256 }
606={1001 }
607={1004 }
608={9843 }
609={11822 }
610={11855 }
611={10397 }
612={10372 }
613={10076 }
614={4058 }
615={10421 }
616={8055 }
617={12656 }
618={1844 }
619={1766 }
620={7625 }
621={2087 }
622={12356 }
623={4233 }
624={7307 }
625={1340 }
626={4429 }
627={7389 }
628={10186 }
629={4180 }
630={13051 }
631={13052 }
632={13047 }
633={13045 }
634={4292 }
635={1237 }
636={12159 }
637={1823 }
638={12140 }
639={13021 }
640={4318 }
641={10188 }
642={13050 }
643={13057 }
644={3184 }
645={13025 }
646={13023 }
647={12103 }
648={13026 }
649={5023 }
650={13067 }
651={273 }
652={1254 }
653={10189 }
654={4800 }
655={855 }
656={8085 }
657={10655 }
658={8108 }
659={5074 }
660={1974 }
661={12009 }
662={13073 }
663={10785 }
664={3565 }
665={11957 }
666={3138 }
667={12234 }
668={1574 }
669={7269 }
670={7218 }
671={7015 }
672={12138 }
673={7598 }
674={7859 }
675={10744 }
676={3916 }
677={7140 }
678={10870 }
679={8092 }
680={7513 }
681={10697 }
682={10718 }
683={2947 }
684={13036 }
685={7617 }
686={1440 }
687={8107 }
688={2195 }
689={12304 }
690={7245 }
691={3284 }
692={379 }
693={1513 }
694={9377 }
695={153 }
696={13010 }
697={3118 }
698={1751 }
699={7943 }
700={2094 }
701={4989 }
702={13014 }
703={13013 }
704={13016 }
705={13015 }
706={13017 }
707={13018 }
708={13072 }
709={2188 }
710={13019 }
711={13005 }
712={13002 }
713={2165 }
714={4592 }
715={4561 }
716={846 }
717={944 }
718={6537 }
719={1494 }
720={10995 }
721={1326 }
722={11142 }
723={7839 }
724={1366 }
725={13038 }
726={7290 }
727={13049 }
728={11981 }
729={4189 }
730={373 }
731={895 }
732={1675 }
733={12251 }
734={7390 }
735={3773 }
736={628 }
737={7352 }
738={4579 }
739={4360 }
740={7259 }
741={1353 }
742={12805 }
743={10000 }
744={4295 }
745={6851 }
746={7631 }
747={10863 }
748={1010 }
749={1171 }
750={7101 }
751={10841 }
752={1918 }
753={9966 }
754={4536 }
755={12890 }
756={12156 }
757={8121 }
758={5094 }
759={5736 }
760={7732 }
761={4876 }
762={6504 }
763={5291 }
764={9603 }
765={665 }
766={13269 }
767={3660 }
768={11245 }
769={6631 }
770={6672 }
771={4851 }
772={614 }
773={1155 }
774={6691 }
775={9699 }
776={740 }
777={4445 }
778={3712 }
779={7462 }
780={10441 }
781={11830 }
782={6909 }
783={9786 }
784={3957 }
785={5039 }
786={12843 }
787={12762 }
788={10780 }
789={5036 }
790={8193 }
791={9962 }
792={2220 }
793={1897 }
794={7930 }
795={8071 }
796={12986 }
797={13219 }
798={3324 }
799={4556 }
800={7900 }
801={13210 }
802={3488 }
803={12029 }
804={11251 }
805={9295 }
806={11531 }
807={6568 }
808={9486 }
809={6570 }
810={3254 }
811={11595 }
812={6946 }
813={13211 }
814={11627 }
815={11564 }
816={9981 }
817={11915 }
818={6940 }
819={11580 }
820={4088 }
821={13239 }
822={1015 }
823={13212 }
824={10472 }
825={7158 }
826={1871 }
827={12403 }
828={5025 }
829={1838 }
830={10911 }
831={4973 }
832={11926 }
833={7314 }
834={3076 }
835={6727 }
836={3407 }
837={6761 }
838={9670 }
839={746 }
840={10900 }
841={13058 }
842={12018 }
843={4902 }
844={1956 }
845={10725 }
846={3959 }
847={521 }
848={901 }
849={3401 }
850={7939 }
851={8051 }
852={10868 }
853={4191 }
854={12082 }
855={1994 }
856={3772 }
857={6973 }
858={9608 }
859={6196 }
860={12596 }
861={12414 }
862={7004 }
863={10127 }
864={7148 }
865={13223 }
866={7987 }
867={12099 }
868={13224 }
869={12824 }
870={13232 }
871={11012 }
872={13222 }
873={13216 }
874={4205 }
875={3922 }
876={13225 }
877={13247 }
878={13226 }
879={1955 }
880={1947 }
881={4932 }
882={10791 }
883={10383 }
884={8101 }
885={4976 }
886={11905 }
887={6913 }
888={11767 }
889={914 }
890={12819 }
891={4440 }
892={8001 }
893={13250 }
894={13251 }
895={13252 }
896={11857 }
897={13245 }
898={13253 }
899={3893 }
900={6886 }
901={13248 }
902={11895 }
903={13257 }
904={9818 }
905={12812 }
906={1905 }
907={4909 }
908={2020 }
909={1964 }
910={12941 }
911={569 }
912={6670 }
913={11816 }
914={6626 }
915={13264 }
916={13259 }
917={13261 }
918={3696 }
919={12218 }
920={10435 }
921={4924 }
922={12740 }
923={12879 }
924={2048 }
925={5042 }
926={12084 }
927={10132 }
928={429 }
