
state={
	id=160
	name="STATE_160"
	resources={
		steel=32.000
		aluminium=18.000
	}

	history={
		owner = ITA
		victory_points = {
			6626 1 
		}
		victory_points = {
			11584 10 
		}
		buildings = {
			infrastructure = 6
			arms_factory = 2
			industrial_complex = 4
			dockyard = 1
			air_base = 3
			11584 = {
				naval_base = 6

			}

		}
		add_core_of = ITA
		1939.1.1 = {
			buildings = {
				dockyard = 2
				industrial_complex = 5

			}

		}

	}

	provinces={
		603 3604 6656 9582 11584 
	}
	manpower=3963151
	buildings_max_level_factor=1.000
	state_category=large_city
}
