
state={
	id=190
	name="STATE_190"
	manpower = 379500
	
	state_category = rural
	
	history={
		owner = RUS
		buildings = {
			infrastructure = 5
			9262 = {
				naval_base = 1
			}
			dockyard = 1
		}
		add_core_of = RUS
	}

	provinces={
		265 3194 3255 3296 3319 3525 6222 6322 6342 9262 11246 11358
	}
}
