
state={
	id=195
	name="STATE_195"

	history={
		owner = RUS
		add_core_of = RUS
		1918.11.11 = {
			owner = SOV
			controller = SOV
			add_core_of = SOV

		}
		buildings = {
			infrastructure = 7
			arms_factory = 6
			industrial_complex = 1
			dockyard = 3
			air_base = 10
			3151 = {
				naval_base = 10
				coastal_bunker = 5

			}

		}

	}

	provinces={
		79 149 3151 6174 11068 
	}
	manpower=3750158
	buildings_max_level_factor=1.000
	state_category=metropolis
}
