
state={
	id=200
	name="STATE_200" # Zaporozhe
	manpower = 1294082
	state_category = town

	history={
		owner = RUS
		victory_points = {
			11405 1
		}
		buildings = {
			infrastructure = 5
			air_base = 3
		}
		add_core_of = RUS
		1918.11.11 = {
			owner = UKR
			controller = UKR
			add_core_of = UKR
			remove_core_of = RUS
		}
	}

	provinces={
		588 3399 3767 6596 9571 9729 11405 11700 
	}
}
