
state={
	id=204
	name="STATE_204"

	history={
		owner = RUS
		buildings = {
			infrastructure = 5

		}
		add_core_of = RUS
		1918.11.11 = {
			owner = BLR
			controller = BLR
			add_core_of = BLR
			remove_core_of = RUS

		}

	}

	provinces={
		222 310 319 341 6459 9275 
	}
	manpower=1041084
	buildings_max_level_factor=1.000
	state_category=rural
}
