
state={
	id=205
	name="STATE_205"

	history={
		owner = RUS
		buildings = {
			infrastructure = 5

		}
		add_core_of = RUS

	}

	provinces={
		246 274 300 335 352 382 3263 3308 3345 3377 6243 6252 6365 9253 9261 9272 9301 9318 9382 11235 11254 11284 11300 11369 
	}
	manpower=1121004
	buildings_max_level_factor=1.000
	state_category=town
}
