
state={
	id=208
	name="STATE_208"

	history={
		owner = SER
		buildings = {
			infrastructure = 6

		}
		add_core_of = SER

	}

	provinces={
		630 6634 9602 9756 9890 9906 11887 
	}
	manpower=143541
	buildings_max_level_factor=1.000
	state_category=rural
}
