
state={
	id=217
	name="STATE_217"

	history={
		owner = RUS
		victory_points = {
			3529 30.0 
		}
		buildings = {
			infrastructure = 7
			arms_factory = 1
			industrial_complex = 1
			air_base = 1

		}
		add_core_of = RUS
		1939.1.1 = {
			buildings = {
				arms_factory = 2

			}

		}

	}

	provinces={
		487 498 518 533 579 3505 3518 3529 3539 3555 3582 3777 6454 6468 6503 6506 6527 6563 6602 6765 6796 9415 9436 9442 9459 9474 9475 9504 9581 11400 11416 11423 11447 11485 11527 
	}
	manpower=1135070
	buildings_max_level_factor=1.000
	state_category=city
}
