
state={
	id=219
	name="STATE_219"
	resources={
		steel=28.000
	}

	history={
		owner = RUS
		add_core_of = RUS
		1918.11.11 = {
			owner = SOV
			controller = SOV
			add_core_of = SOV
		}
		victory_points = {
			6380 50 
		}
		buildings = {
			infrastructure = 8
			arms_factory = 9
			industrial_complex = 2
			air_base = 10

		}

	}

	provinces={
		301 350 366 401 3259 3290 3327 3358 3391 6283 6290 6348 6380 6414 9235 9282 9302 9348 9378 9395 11217 11236 11268 11282 11330 
	}
	manpower=8335992
	buildings_max_level_factor=1.000
	state_category=megalopolis
}
