
state={
	id=244
	name="STATE_244"

	history={
		owner = RUS
		1918.1.1 = {
			owner = SOV
			controller = SOV

		}
		buildings = {
			infrastructure = 5

		}
		add_core_of = RUS

	}

	provinces={
		9150 
	}
	manpower=195325
	buildings_max_level_factor=1.000
	state_category=rural
}
