
state={
	id=260
	name="STATE_260"

	history={
		owner = RUS
		buildings = {
			infrastructure = 5
			arms_factory = 1

		}
		victory_points = {
			413 5 
		}
		add_core_of = RUS

	}

	provinces={
		413 437 510 544 3504 3527 3566 6428 6494 6553 6587 9448 9529 11512 11540 
	}
	manpower=2567983
	buildings_max_level_factor=1.000
	state_category=town
}
