state=
{
	id=269
	name="STATE_269"
	manpower = 344700
	
	state_category = enclave
	
	history= {
		owner = ENG
		buildings = {
			infrastructure = 3
			12759 = {
				naval_base = 1
			}
		}
	}
	provinces={
		5068 10777 10833 10921 12759
	}
}
