
state={
	id=291
	name="STATE_291"
	resources={
		oil=15.000
	}

	history={
		owner = OTT
		victory_points = {
			2097 5 
		}
		victory_points = {
			2089 1 
		}
		buildings = {
			infrastructure = 5
			arms_factory = 1
			industrial_complex = 2
			air_base = 4
			2089 = {
				naval_base = 1

			}

		}
		add_core_of = OTT

	}

	provinces={
		78 2004 2089 2097 3795 7977 7994 12046 12372 12413 12726 12855 13238 13240 13241 
	}
	manpower=2033044
	buildings_max_level_factor=1.000
	state_category=town
}
