
state={
	id=325
	name="STATE_325"
	resources={
		tungsten=2.000
	}

	history={
		1900.1.1 = {
			owner = QIN
			add_core_of = QIN
		}
		1914.1.1 = {
			owner = ROC
			add_core_of = ROC
			remove_core_of = QIN
		}
		1918.11.11 = {
			owner = YUN
			controller = YUN
			add_core_of = YUN
			remove_core_of = ROC
		}
		victory_points = {
			1319 10 
		}
		buildings = {
			infrastructure = 2
			arms_factory = 1
			industrial_complex = 2

		}

	}

	provinces={
		1114 1172 1196 1319 1383 1522 1653 4501 5072 7446 7606 8023 10346 10776 10819 12262 12282 12841 
	}
	manpower=10994500
	buildings_max_level_factor=1.000
	state_category=town
}
