state=
{
	id=326
	name="STATE_326"
	manpower = 1143516
	state_category = large_town
	history=
	{
		1900.1.1 = {
			owner = ENG
			#
		}
		1914.1.1 = {
			owner = ENG
			add_core_of = ROC
		}
		victory_points = {
			10062 3 
		}
		buildings = {
			infrastructure = 5
			air_base = 1
			10062 = {
				naval_base = 6
				coastal_bunker = 1
			}
		}
	}
	provinces={
		10062
	}
}
