
state={
	id=356
	name="STATE_356"

	history={
		owner = OTT
		buildings = {
			infrastructure = 3
			6995 = {
				naval_base = 1

			}

		}
		add_core_of = OTT

	}

	provinces={
		979 3982 6920 6938 6978 9844 9871 11839 11897 
	}
	manpower=860589
	buildings_max_level_factor=1.000
	state_category=rural
}
