
state={
	id=40
	name="STATE_40" # Barnaul
	manpower = 2107451
	
	state_category = large_town

	history={
		owner = RUS
		add_core_of = RUS
		buildings = {
			infrastructure = 2
			industrial_complex = 1
		}
	}

	provinces={
		1297 1779 1794 1797 4803 7680 10537 10546 11410 12515 12528 12613 
	}
}
