state={
	id=405
	name="STATE_405"

	history={
		owner = RUS
		add_core_of = RUS
		victory_points = {
			1459 3 
		}
		buildings = {
			infrastructure = 4
			industrial_complex = 3
		}
	}

	provinces={
		1459 1919 2058 4542 10187 10488 10601 11687 12430 12250 12581 
	}
	manpower=5275820
	buildings_max_level_factor=1.000
	state_category=city
}
