
state={
	id=514
	name="STATE_514"

	impassable = yes
	history={
		owner = FRA
		buildings = {
			infrastructure = 0

		}
		add_core_of = ALG

	}

	provinces={
		1095 10749 
	}
	manpower=207733
	buildings_max_level_factor=1.000
	state_category=wasteland
}
