
state={
	id=515
	name="STATE_515"

	history={
		owner = FRA
		buildings = {
			infrastructure = 1

		}

	}

	provinces={
		1473 1883 2081 3123 3181 4897 4978 7919 9152 13138 
	}
	manpower=925048
	buildings_max_level_factor=1.000
	state_category=rural
}
