
state={
	id=541
	name="STATE_541"
	manpower = 462000
	
	state_category = wasteland

	history={
		owner = GER
		1918.11.11 = {
			owner = SAF
			controller = SAF
		}
		buildings = {
			infrastructure = 3
		}
		victory_points = {
			4879 1
		}

	}

	provinces={
		2207 2229 4879 5154 5189 7605 7770 8136 10957 10963 10978 12519 12921 
	}
}
