
state={
	id=553
	name="STATE_553"

	history={
		owner = OTT
		1918.11.11 = {
			owner = FRA
			controller = FRA
			remove_core_of = OTT

		}
		buildings = {
			infrastructure = 3

		}
		add_core_of = OTT

	}

	provinces={
		792 1108 11919 
	}
	manpower=441600
	buildings_max_level_factor=1.000
	state_category=town
}
