state={
	id=559
	name="STATE_559"
	manpower = 1020000
	
	state_category = rural
	
	history={
		owner = ITA
		victory_points = {
			12991 3 
		}
		buildings = {
			infrastructure = 3
			8164 = {
				naval_base = 2
			}
		}
	}
	provinces={
		 1966 2063 5065 8164 10818 10891 10928 12840 12991 	
	}
}
