
state={
	id=57
	name="STATE_57"

	history={
		owner = GER
		victory_points = {
			495 5 
		}

		buildings = {
			infrastructure = 8
			arms_factory = 3
			industrial_complex = 2
			air_base = 3

		}
		add_core_of = GER
		1939.1.1 = {
			buildings = {
				radar_station = 1
				arms_factory = 6
				industrial_complex = 3

			}

		}

	}

	provinces={
		405 495 3355 3398 6535 6622 9443 9509 11346 11431 
	}
	manpower=5109333
	buildings_max_level_factor=1.000
	state_category=large_city
}
