state={
	id=587
	name="STATE_587"

	history={
		owner = RUS
		buildings = {
			infrastructure = 1

		}
		add_core_of = RUS
		#add_core_of = KAZ
	}

	provinces={
		475 642 1517 3593 4523 4620 7641 10262 11701 12163 12383 12474 13008 
	}
	manpower=245133
	buildings_max_level_factor=1.000
	state_category=rural
}
