
state={
	id=597
	name="STATE_597"

	history={
		1900.1.1 = {
			owner = QIN
			add_core_of = QIN
		}
		1914.1.1 = {
			owner = ROC
			remove_core_of = QIN
			add_core_of = ROC
		}
		1918.1.1 = {
			owner = SHD
			add_core_of = SHD
		}
		victory_points = {
			1069 3 
		}
		buildings = {
			infrastructure = 3
			industrial_complex = 1
			air_base = 2

		}

	}

	provinces={
		1069 1084 1104 1124 1154 1184 1200 4037 4071 4089 4157 4181 4186 7055 7089 7105 7129 7160 7189 9971 9987 10018 10043 10072 10102 11933 11962 12015 12045 12069 12074 12093 
	}
	manpower=38373200
	buildings_max_level_factor=1.000
	state_category=town
}
