state={
	id=602
	name="STATE_602"
	resources={
		tungsten=6.000
	}

	history = {
	
		1900.1.1 = {
			owner = QIN
			add_core_of = QIN
		}
		1914.1.1 = {
			owner = ROC
			add_core_of = ROC
			remove_core_of = QIN
		}
		1918.1.1 = {
			owner = HNN
			add_core_of = HNN
		}
		buildings = {
			infrastructure = 5
			arms_factory = 1

		}
		
		victory_points = {
			7097 5 
		}

	}

	provinces={
		1448 1640 4125 4480 7097 7159 7502 7665 9982 9999 10335 10377 10517 11918 12017 12053 12310 12350 12378 12483 13140 13143 
	}
	manpower=20293700
	buildings_max_level_factor=1.000
	state_category=town
}
