
state={
	id=610
	name="STATE_610"

	history = {
	
		1900.1.1 = {
			owner = QIN
			#
		}
		1914.1.1 = {
			owner = ROC
			add_core_of = ROC
		}
		buildings = {
			infrastructure = 4

		}
		victory_points = {
			9873 1 
		}

	}

	provinces={
		814 881 934 972 1508 3814 3828 3881 3978 4514 6852 6898 6937 6988 7575 7633 9768 9873 9905 9927 10331 10426 10429 10499 11801 11855 12478 
	}
	manpower=1975377
	buildings_max_level_factor=1.000
	state_category=pastoral
}
