state={
	id=675
	name="STATE_675"
	manpower = 122093
	
	state_category = wasteland

	history={
		owner = JAB
		buildings = {
			infrastructure = 1
		}
		add_core_of = JAB
	}
	
	provinces={
		1631 4951 10744 
	}
}
