
state={
	id=677
	name="STATE_677"

	history={
		owner = OTT
		victory_points = {
			12473 1 
		}
		buildings = {
			infrastructure = 3

		}
		add_core_of = OTT

	}

	provinces={
		1056 1072 1088 7140 7671 10087 12473 
	}
	manpower=1091215
	buildings_max_level_factor=1.000
	state_category=town
}
