state={
	id=745
	name="STATE_745"
	provinces={
		1150 6851 
	}
	state_category = large_town
	history=
	{
		1900.1.1 = {
			owner = JAP
			#
		}
		1914.1.1 = {
			owner = JAP
			add_core_of = ROC
		}
		victory_points = {
			1150 1 
		}
		buildings = {
			infrastructure = 5
			air_base = 1
			industrial_complex = 1
			1150 = {
				naval_base = 5
				coastal_bunker = 1
			}
		}

	
	}
	manpower=1000000
	buildings_max_level_factor=1.000
}
