state={
	id=747
	name="STATE_747"
	provinces={
		4559 4937 5009 7965 7976 8126 10413 10863 12789 12898 
	}
	manpower=1000000
	buildings_max_level_factor=1.000
	state_category = pastoral
	history={
		1900.1.1 = {
			owner = QIN
			add_core_of = QIN
		}
		1914.1.1 = {
			owner = ROC
			add_core_of = ROC
			remove_core_of = QIN
		}
		1918.11.11 = {
			owner = YUN
			controller = YUN
			add_core_of = YUN
			remove_core_of = ROC
		}
		victory_points = {
			7965 3 
		}
		buildings = {
			infrastructure = 3
		}

	}
}
