
state={
	id=765
	name="STATE_765"

	history={
		owner = AUS
		1918.11.11 = {
			owner = SCS
			controller = SCS
			add_core_of = SCS
			remove_core_of = AUS

		}
		buildings = {
			infrastructure = 5

		}
		victory_points = {
			9627 3 
		}
		add_core_of = AUS

	}

	provinces={
		665 
	}
	manpower=268710
	buildings_max_level_factor=1.000
	state_category=large_town
}
