state={
    id=777
    name="STATE_777"
    history={
        owner = USA
        buildings = {
            infrastructure = 4
			industrial_complex = 1
        }
        add_core_of = USA
		victory_points = { 4445 3 }
       
    }
    provinces={
        4445 7629 9675 13158 
    }
    manpower=357000
    state_category=rural
}