
state={
	id=787
	name="STATE_787"

	history={
		owner = FRA
		buildings = {
			infrastructure = 3
			10919 = {
				naval_base = 1

			}

		}

	}

	provinces={
		10919 12762 12874 
	}
	manpower=1351500
	buildings_max_level_factor=1.000
	state_category=rural
}
