
state={
	id=789
	name="STATE_789"

	history={
		owner = GER
		1918.11.11 = {
			owner = FRA
			controller = FRA
		}
		buildings = {
			infrastructure = 3
		6039 = {
				naval_base = 1
			}

		}

	}

	provinces={
		2080 5036 5054 6039 7963 9137 11194 
	}
	manpower=1877113
	buildings_max_level_factor=1.000
	state_category=rural
}
