
state={
	id=801
	name="STATE_801"

	history={
		owner = ENG
		victory_points = {
			13210 5
		}
		buildings = {
			infrastructure = 4
			13210 = {
				naval_base = 1

			}

		}
		add_core_of = ENG
	}

	provinces={
		13210
	}
	manpower=93061
	buildings_max_level_factor=1.000
	state_category=pastoral
}
