state={
	id=803
	name="STATE_803"
	history={
		owner = OTT

		buildings = {
			infrastructure = 3
		}
		add_core_of = OTT
	}
	provinces={
		12029 
	}
	manpower=234379
	buildings_max_level_factor=1.000
	state_category=pastoral
}
