
state={
	id=813
	name="STATE_813"

	history={
		owner = AUS
		1918.11.11 = {
			owner = ITA
			controller = ITA
			remove_core_of = AUS

		}
		buildings = {
			infrastructure = 3
			11735 = {
				naval_base = 5

			}

		}
		add_core_of = ITA
		add_core_of = AUS

	}

	provinces={
		599 11735 13211 13262 
	}
	manpower=51000
	buildings_max_level_factor=1.000
	state_category=pastoral
}
