
state={
	id=839
	name="STATE_839"

	history={
		owner = AUS
		1918.11.11 = {
			owner = HUN
			controller = HUN
			add_core_of = HUN

		}
		add_core_of = ROM
		buildings = {
			infrastructure = 2

		}

	}

	provinces={
		746 9704 
	}
	manpower=299287
	buildings_max_level_factor=1.000
	state_category=pastoral
}
