
state={
	id=852
	name="STATE_852"
	resources={
		oil=1
	}

	history={
		owner = OTT
		victory_points = {
			10868 1 
		}
		buildings = {
			infrastructure = 2
			10868 = {
				naval_base = 1
			}

		}

	}

	provinces={
		10868
	}
	manpower=94000
	buildings_max_level_factor=1.000
	state_category=pastoral
}
