
state={
	id=853
	name="STATE_853"

	impassable = yes
	history = {
		owner = ENG
		add_core_of = LBA
		
		buildings = {
			infrastructure = 0

		}
	}

	provinces={
		4191
	}
	manpower=580
	buildings_max_level_factor=1.000
	state_category=wasteland
}
