
state={
	id=854
	name="STATE_854"

	impassable = yes
	history={
		owner = FRA
		buildings = {
			infrastructure = 0

		}
		add_core_of = LBA

	}

	provinces={
		12082
	}
	manpower=178
	buildings_max_level_factor=1.000
	state_category=wasteland
}
