state={
	id=863
	name="STATE_863"
	
	impassable = yes
	history={
		owner = EGY
		add_core_of = LBA
		buildings = {
			infrastructure = 0
		}
	}

	provinces={
		10127
	}
	manpower=6000
	buildings_max_level_factor=1.000
	state_category=wasteland
}
