state={
	id=866
	name="STATE_866"
	
	impassable = yes
	history={
		owner = ENG
		buildings = {
			infrastructure = 0
		}
	}

	provinces={
		7987
	}
	manpower=539
	buildings_max_level_factor=1.000
	state_category=wasteland
}
