
state={
	id=877
	name="STATE_877"

	history={
		owner = AUS
		add_core_of = AUS
		add_core_of = MNT
		1918.1.1 = {
			owner = MNT
			remove_core_of = AUS
		}
		buildings = {
			infrastructure = 1
		}

	}

	provinces={
		13247
	}
	manpower=26037
	buildings_max_level_factor=1.000
	state_category=rural
}
