
state={
	id=878
	name="STATE_878"

	history={
		owner = ENG
		add_core_of = SAU

		buildings = {
			infrastructure = 1
		}

	}

	provinces={
		13226
	}
	manpower=26037
	buildings_max_level_factor=1.000
	state_category=wasteland
}
