
state={
	id=899
	name="STATE_899"

	history={
		owner = OTT
		buildings = {
			infrastructure = 1

		}
		add_core_of = OTT
		add_core_of = BUL
		add_core_of = GRE

	}

	provinces={
		922 3893 11842 13258 
	}
	manpower=50194
	buildings_max_level_factor=1.000
	state_category=rural
}
