
state={
	id=9
	name="STATE_9"
	resources={
		steel=5.000
	}

	history={
		owner = AUS
		victory_points = {
			11542 20 
		}
		victory_points = {
			6418 5 
		}
		buildings = {
			infrastructure = 7
			arms_factory = 6
			industrial_complex = 1
			anti_air_building = 5
			air_base = 5

		}
		add_core_of = AUS
		1918.11.11 = {
			owner = CZE
			controller = CZE
			add_core_of = CZE

		}

	}

	provinces={
		494 583 3462 6418 6440 6592 9421 9429 9541 9569 11542 11556 
	}
	manpower=4492600
	buildings_max_level_factor=1.000
	state_category=large_city
}
