
state={
	id=902
	name="STATE_902"

	history={
		owner = GRE
		buildings = {
			infrastructure = 1

		}
		add_core_of = GRE

	}

	provinces={
		1106 1205 10203 11786 11895 12001 13255 
	}
	manpower=0
	buildings_max_level_factor=1.000
	state_category=rural
}
