state={
	id=923
	name="STATE_923"
	manpower = 122093
	
	state_category = wasteland

	history={
		owner = JAB
		buildings = {
			infrastructure = 1
		}
		add_core_of = JAB
	}
	
	provinces={
		12879 13237 13236
	}
}
