
state={
	id=924
	name="STATE_924"
	resources={
		oil=1
	}

	history={
		owner = SAU
		buildings = {
			infrastructure = 1
		}

	}

	provinces={
		2048
	}
	manpower=900
	buildings_max_level_factor=1.000
	state_category=pastoral
	impassable = yes
}
